<?xml version="1.0" encoding="utf-8"?>
<!-- Generator: Adobe Illustrator 24.2.1, SVG Export Plug-In . SVG Version: 6.00 Build 0)  -->
<svg version="1.1" id="图层_1" xmlns="http://www.w3.org/2000/svg" xmlns:xlink="http://www.w3.org/1999/xlink" x="0px" y="0px"
	 viewBox="0 0 150.65 134.85" style="enable-background:new 0 0 150.65 134.85;" xml:space="preserve">
<style type="text/css">
	.st0{fill:none;stroke:#AAABAB;stroke-width:0.36;stroke-linejoin:bevel;}
	.st1{fill:none;stroke:#040000;stroke-width:0.36;stroke-linejoin:bevel;}
	.st2{fill:none;stroke:#A4A4A5;stroke-width:0.36;stroke-linejoin:bevel;}
	.st3{fill:none;stroke:#33CCFF;stroke-width:0.36;stroke-linejoin:bevel;}
</style>
<line class="st0" x1="33.72" y1="16.94" x2="11.62" y2="55.24"/>
<line class="st0" x1="54.32" y1="129.14" x2="98.52" y2="129.04"/>
<line class="st0" x1="11.62" y1="79.04" x2="33.72" y2="117.34"/>
<line class="st1" x1="51.32" y1="76.34" x2="51.32" y2="76.64"/>
<line class="st1" x1="51.32" y1="81.54" x2="51.32" y2="81.74"/>
<line class="st1" x1="85.62" y1="92.24" x2="85.82" y2="92.24"/>
<line class="st1" x1="90.72" y1="92.24" x2="91.02" y2="92.24"/>
<line class="st1" x1="53.82" y1="81.74" x2="53.82" y2="81.54"/>
<line class="st1" x1="53.82" y1="76.64" x2="53.82" y2="76.34"/>
<line class="st0" x1="56.82" y1="70.54" x2="56.82" y2="71.34"/>
<line class="st2" x1="56.82" y1="66.34" x2="56.82" y2="62.94"/>
<line class="st1" x1="91.02" y1="89.74" x2="90.72" y2="89.74"/>
<line class="st1" x1="85.82" y1="89.74" x2="85.62" y2="89.74"/>
<line class="st0" x1="72.12" y1="86.74" x2="75.62" y2="86.74"/>
<line class="st1" x1="79.82" y1="86.74" x2="80.62" y2="86.74"/>
<line class="st1" x1="63.22" y1="88.24" x2="63.22" y2="88.54"/>
<line class="st1" x1="63.22" y1="93.44" x2="63.22" y2="93.64"/>
<line class="st1" x1="63.72" y1="78.14" x2="63.72" y2="71.84"/>
<line class="st0" x1="64.52" y1="71.34" x2="64.52" y2="79.14"/>
<line class="st1" x1="97.52" y1="80.34" x2="97.82" y2="80.34"/>
<line class="st1" x1="102.72" y1="80.34" x2="102.92" y2="80.34"/>
<line class="st1" x1="71.72" y1="79.84" x2="65.22" y2="79.84"/>
<line class="st0" x1="64.52" y1="79.14" x2="74.62" y2="79.04"/>
<line class="st1" x1="65.72" y1="93.64" x2="65.72" y2="93.44"/>
<line class="st1" x1="65.72" y1="88.54" x2="65.72" y2="88.24"/>
<line class="st0" x1="66.22" y1="71.34" x2="66.22" y2="79.14"/>
<line class="st1" x1="102.92" y1="77.84" x2="102.72" y2="77.84"/>
<line class="st1" x1="97.82" y1="77.84" x2="97.52" y2="77.84"/>
<line class="st1" x1="71.72" y1="36.94" x2="71.72" y2="39.54"/>
<line class="st1" x1="71.72" y1="47.14" x2="71.72" y2="59.14"/>
<line class="st1" x1="71.72" y1="79.84" x2="71.72" y2="87.14"/>
<line class="st1" x1="71.72" y1="97.34" x2="71.72" y2="94.74"/>
<line class="st1" x1="72.12" y1="96.54" x2="72.12" y2="93.74"/>
<line class="st0" x1="72.12" y1="88.14" x2="72.12" y2="79.04"/>
<line class="st2" x1="72.12" y1="68.44" x2="72.12" y2="46.14"/>
<line class="st0" x1="72.12" y1="40.64" x2="72.12" y2="37.74"/>
<line class="st0" x1="73.02" y1="86.74" x2="73.02" y2="96.64"/>
<line class="st0" x1="73.02" y1="47.54" x2="72.92" y2="37.64"/>
<line class="st0" x1="74.62" y1="79.04" x2="74.62" y2="86.74"/>
<line class="st0" x1="75.12" y1="39.14" x2="75.12" y2="62.94"/>
<line class="st0" x1="75.62" y1="86.74" x2="75.62" y2="96.94"/>
<line class="st0" x1="76.42" y1="37.34" x2="76.42" y2="62.94"/>
<line class="st0" x1="76.42" y1="96.94" x2="76.42" y2="71.34"/>
<line class="st1" x1="106.62" y1="71.84" x2="104.02" y2="71.84"/>
<line class="st1" x1="46.02" y1="71.84" x2="48.82" y2="71.84"/>
<line class="st1" x1="56.42" y1="71.84" x2="63.72" y2="71.84"/>
<line class="st1" x1="84.42" y1="71.84" x2="96.42" y2="71.84"/>
<line class="st0" x1="105.82" y1="71.34" x2="102.92" y2="71.34"/>
<line class="st0" x1="49.82" y1="71.34" x2="46.92" y2="71.34"/>
<line class="st0" x1="55.42" y1="71.34" x2="77.62" y2="71.34"/>
<line class="st0" x1="80.62" y1="71.34" x2="97.42" y2="71.34"/>
<line class="st0" x1="46.82" y1="70.64" x2="56.82" y2="70.54"/>
<line class="st0" x1="96.02" y1="70.54" x2="105.92" y2="70.54"/>
<line class="st2" x1="80.62" y1="68.84" x2="96.02" y2="68.84"/>
<line class="st2" x1="48.32" y1="68.44" x2="72.12" y2="68.44"/>
<line class="st2" x1="96.02" y1="67.94" x2="106.22" y2="67.94"/>
<line class="st2" x1="106.22" y1="67.14" x2="80.62" y2="67.14"/>
<line class="st2" x1="46.62" y1="67.14" x2="72.12" y2="67.14"/>
<line class="st0" x1="77.22" y1="47.54" x2="77.12" y2="37.34"/>
<line class="st0" x1="77.72" y1="95.14" x2="77.62" y2="71.34"/>
<line class="st0" x1="78.12" y1="62.94" x2="78.12" y2="47.54"/>
<line class="st0" x1="79.82" y1="96.64" x2="79.82" y2="86.74"/>
<line class="st0" x1="79.82" y1="47.54" x2="79.82" y2="37.64"/>
<line class="st0" x1="80.62" y1="37.74" x2="80.62" y2="40.64"/>
<line class="st0" x1="80.62" y1="93.74" x2="80.62" y2="96.54"/>
<line class="st2" x1="80.62" y1="88.14" x2="80.62" y2="65.94"/>
<line class="st0" x1="80.62" y1="62.94" x2="80.62" y2="46.14"/>
<line class="st1" x1="81.12" y1="36.94" x2="81.12" y2="39.54"/>
<line class="st1" x1="81.12" y1="97.34" x2="81.12" y2="94.74"/>
<line class="st1" x1="81.12" y1="87.14" x2="81.12" y2="75.14"/>
<line class="st1" x1="81.12" y1="59.14" x2="81.12" y2="47.14"/>
<line class="st2" x1="56.82" y1="66.34" x2="46.62" y2="66.34"/>
<line class="st2" x1="104.42" y1="65.84" x2="80.62" y2="65.94"/>
<line class="st2" x1="72.12" y1="65.44" x2="56.82" y2="65.44"/>
<line class="st0" x1="56.82" y1="63.74" x2="46.82" y2="63.74"/>
<line class="st0" x1="96.02" y1="63.74" x2="105.92" y2="63.74"/>
<line class="st1" x1="46.92" y1="62.94" x2="49.82" y2="62.94"/>
<line class="st0" x1="55.42" y1="62.94" x2="72.12" y2="62.94"/>
<line class="st0" x1="75.12" y1="62.94" x2="97.42" y2="62.94"/>
<line class="st0" x1="102.92" y1="62.94" x2="105.82" y2="62.94"/>
<line class="st1" x1="106.62" y1="62.44" x2="104.02" y2="62.44"/>
<line class="st1" x1="96.42" y1="62.44" x2="84.42" y2="62.44"/>
<line class="st1" x1="68.42" y1="62.44" x2="56.42" y2="62.44"/>
<line class="st1" x1="46.02" y1="62.44" x2="48.72" y2="62.44"/>
<line class="st1" x1="87.02" y1="40.64" x2="87.02" y2="40.84"/>
<line class="st1" x1="87.02" y1="45.74" x2="87.02" y2="46.04"/>
<line class="st1" x1="89.62" y1="46.04" x2="89.62" y2="45.74"/>
<line class="st1" x1="89.62" y1="40.84" x2="89.62" y2="40.64"/>
<line class="st1" x1="49.92" y1="56.54" x2="50.12" y2="56.54"/>
<line class="st1" x1="55.02" y1="56.54" x2="55.22" y2="56.54"/>
<polygon class="st3" points="68.52,50.84 66.62,54.34 68.52,54.34 "/>
<line class="st1" x1="55.22" y1="53.94" x2="55.02" y2="53.94"/>
<line class="st1" x1="50.12" y1="53.94" x2="49.92" y2="53.94"/>
<line class="st2" x1="96.02" y1="71.34" x2="96.02" y2="67.94"/>
<line class="st0" x1="96.02" y1="63.74" x2="96.02" y2="62.94"/>
<polygon class="st3" points="71.12,54.34 71.12,55.64 70.22,55.64 70.22,57.34 68.52,57.34 68.52,55.64 65.22,55.64 65.22,54.04 
	68.42,49.14 70.22,49.14 70.22,54.34 "/>
<line class="st0" x1="73.02" y1="47.54" x2="72.12" y2="47.54"/>
<line class="st0" x1="77.22" y1="47.54" x2="80.62" y2="47.54"/>
<line class="st1" x1="99.02" y1="52.54" x2="99.02" y2="52.84"/>
<line class="st1" x1="99.02" y1="57.64" x2="99.02" y2="57.94"/>
<line class="st1" x1="101.52" y1="57.94" x2="101.52" y2="57.64"/>
<line class="st1" x1="101.52" y1="52.84" x2="101.52" y2="52.54"/>
<line class="st1" x1="61.82" y1="44.54" x2="62.02" y2="44.54"/>
<line class="st1" x1="66.92" y1="44.54" x2="67.22" y2="44.54"/>
<line class="st1" x1="67.22" y1="42.04" x2="66.92" y2="42.04"/>
<line class="st1" x1="62.02" y1="42.04" x2="61.82" y2="42.04"/>
<line class="st0" x1="119.12" y1="117.34" x2="141.13" y2="78.92"/>
<line class="st0" x1="120.62" y1="118.14" x2="142.5" y2="79.78"/>
<line class="st0" x1="98.52" y1="5.14" x2="54.32" y2="5.14"/>
<line class="st0" x1="141.12" y1="55.34" x2="119.02" y2="17.14"/>
<path class="st0" d="M33.72,117.34c4.3,7.2,12.1,11.7,20.5,11.8h0.1"/>
<path class="st1" d="M71.52,94.74c0.7-1.2,1-2.5,1-3.8s-0.3-2.6-0.8-3.7"/>
<path class="st1" d="M56.42,71.84c-1.2-0.6-2.5-1-3.8-1s-2.6,0.4-3.7,1"/>
<path class="st1" d="M57.82,79.14L57.82,79.14c0,2.9-2.4,5.3-5.3,5.3s-5.3-2.4-5.3-5.3s2.4-5.3,5.3-5.3l0,0c2.9,0,5.2,2.3,5.3,5.2
	C57.82,79.04,57.82,79.14,57.82,79.14"/>
<path class="st1" d="M69.82,90.94v0.1c0,2.9-2.4,5.3-5.3,5.3c-2.9,0-5.3-2.4-5.3-5.3s2.4-5.3,5.3-5.3l0,0
	C67.42,85.74,69.82,88.04,69.82,90.94v0.1"/>
<path class="st1" d="M67.52,100.64h0.7c1.8,0,3.3-1.4,3.4-3.2"/>
<path class="st1" d="M46.02,71.84L46.02,71.84c-1.8,0-3.3,1.4-3.4,3.2c0,0.1,0,0.1,0,0.2c0,0.3,0,0.7,0.1,1"/>
<path class="st1" d="M55.52,79.14L55.52,79.14c0,1.6-1.4,2.9-3,2.9s-2.9-1.4-2.9-3s1.3-2.8,2.9-2.9
	C54.22,76.14,55.52,77.44,55.52,79.14C55.52,79.04,55.52,79.14,55.52,79.14"/>
<path class="st1" d="M67.42,90.94v0.1c0,1.6-1.3,2.9-2.9,2.9c-1.6,0-3-1.3-3-2.9s1.3-3,2.9-3C66.02,87.94,67.42,89.24,67.42,90.94
	v0.1"/>
<path class="st1" d="M55.42,79.14h-0.1c0,1.5-1.2,2.7-2.7,2.6l0,0c-1.5,0-2.7-1.2-2.7-2.7s1.2-2.7,2.7-2.7l0,0
	c1.5,0,2.7,1.2,2.8,2.7V79.14"/>
<path class="st1" d="M67.32,90.94v0.1c-0.1,1.5-1.3,2.6-2.8,2.6c-1.5,0-2.7-1.2-2.7-2.7s1.2-2.7,2.7-2.7l0,0c1.5,0,2.7,1.2,2.8,2.8"
	/>
<path class="st1" d="M63.72,78.14c0,0.8,0.7,1.5,1.6,1.6"/>
<path class="st0" d="M11.62,55.24c-2.1,3.6-3.3,7.6-3.2,11.8c0,4.2,1.1,8.3,3.2,12"/>
<path class="st0" d="M54.32,5.14h-0.1c-8.5,0-16.3,4.5-20.5,11.9"/>
<path class="st1" d="M48.82,62.34c2.3,1.3,5.1,1.3,7.4,0"/>
<path class="st1" d="M71.62,47.14c0.6-1.2,0.9-2.5,0.8-3.8c0-1.2-0.3-2.5-0.8-3.6"/>
<path class="st1" d="M69.82,43.34h-0.1c0,2.9-2.4,5.3-5.3,5.3c-2.9,0-5.3-2.4-5.3-5.3s2.4-5.3,5.3-5.3l0,0c2.9,0,5.2,2.3,5.3,5.2
	v0.1"/>
<path class="st1" d="M57.82,55.24L57.82,55.24c0,2.9-2.4,5.3-5.3,5.3s-5.3-2.4-5.3-5.3c0-2.9,2.4-5.3,5.3-5.3l0,0
	C55.42,50.04,57.82,52.34,57.82,55.24"/>
<path class="st1" d="M68.42,62.34c1.7-0.1,3.1-1.5,3.2-3.2"/>
<path class="st1" d="M42.82,58.24c-0.1,0.2-0.1,0.5-0.1,0.7c0,1.8,1.5,3.3,3.3,3.4l0,0"/>
<path class="st1" d="M71.62,36.94v-0.1c0-1.8-1.5-3.3-3.4-3.4c-0.4,0-0.6,0.1-0.8,0.1"/>
<path class="st1" d="M55.52,55.24L55.52,55.24c0,1.6-1.4,2.9-3,2.9s-2.9-1.4-2.9-3s1.3-2.8,2.9-2.9
	C54.22,52.24,55.52,53.64,55.52,55.24"/>
<path class="st1" d="M67.42,43.34L67.42,43.34c0,1.6-1.4,2.9-3,2.9c-1.6,0-2.9-1.4-2.9-3s1.3-2.8,2.9-2.9
	C66.02,40.34,67.42,41.64,67.42,43.34L67.42,43.34"/>
<path class="st1" d="M67.32,43.34h-0.1c0,1.5-1.2,2.7-2.7,2.6l0,0c-1.5,0-2.7-1.2-2.7-2.7s1.2-2.7,2.7-2.7l0,0
	c1.5,0,2.7,1.2,2.8,2.7C67.32,43.24,67.32,43.24,67.32,43.34"/>
<path class="st1" d="M55.32,55.24L55.32,55.24c0,1.5-1.2,2.7-2.7,2.8c0,0,0,0-0.1,0c-1.5,0-2.8-1.2-2.8-2.8c0-1.5,1.2-2.8,2.8-2.8
	l0,0C54.02,52.44,55.22,53.64,55.32,55.24L55.32,55.24"/>
<path class="st0" d="M98.52,129.04c8.49-0.1,16.38-4.54,20.63-11.75"/>
<path class="st1" d="M103.92,71.84c-1.2-0.7-2.5-1-3.8-1c-1.3,0.1-2.6,0.4-3.7,1"/>
<path class="st1" d="M81.12,87.14c-0.6,1.1-1,2.4-1,3.7c0,1.3,0.4,2.7,1,3.8"/>
<path class="st1" d="M93.62,90.94v0.1c0,2.9-2.4,5.3-5.3,5.3s-5.3-2.4-5.3-5.3s2.4-5.3,5.3-5.3l0,0
	C91.22,85.74,93.52,88.04,93.62,90.94v0.1"/>
<path class="st1" d="M105.42,79.04L105.42,79.04c0,2.9-2.4,5.2-5.3,5.2s-5.2-2.4-5.2-5.3c0-2.8,2.3-5.1,5.2-5.2
	C103.12,73.74,105.42,76.04,105.42,79.04C105.42,78.94,105.42,79.04,105.42,79.04"/>
<path class="st1" d="M84.42,71.84h-0.1c-1.8,0-3.2,1.5-3.2,3.3v0.1"/>
<path class="st1" d="M109.82,76.04c0.1-0.3,0.1-0.6,0.1-0.8c0.1-1.8-1.3-3.3-3.1-3.4h-0.1"/>
<path class="st1" d="M81.12,97.34c0,1.8,1.5,3.2,3.3,3.2h0.1c0.3,0,0.7,0,1-0.1"/>
<path class="st1" d="M91.32,90.94l-0.1,0.1c0,1.6-1.3,2.9-2.9,2.9s-3-1.3-3-2.9s1.3-3,2.9-3s3,1.3,3,2.9v0.1"/>
<path class="st1" d="M103.22,79.04L103.22,79.04c0,1.6-1.4,2.9-3,2.9s-2.9-1.4-2.9-3s1.3-2.8,2.9-2.9
	C101.82,76.04,103.22,77.34,103.22,79.04"/>
<path class="st1" d="M91.02,90.94v0.1c-0.1,1.5-1.3,2.6-2.8,2.6s-2.7-1.2-2.7-2.7s1.2-2.7,2.7-2.7l0,0c1.5,0,2.7,1.2,2.8,2.8"/>
<path class="st1" d="M102.92,79.04L102.92,79.04c0,1.5-1.3,2.7-2.8,2.6c-1.5,0-2.7-1.3-2.6-2.8c0-1.4,1.2-2.6,2.6-2.6
	C101.62,76.24,102.92,77.44,102.92,79.04C102.92,78.94,102.92,78.94,102.92,79.04"/>
<path class="st0" d="M135.12,67.14L135.12,67.14c0,32.4-26.3,58.7-58.7,58.7s-58.7-26.3-58.7-58.7s26.3-58.7,58.7-58.7l0,0
	C108.82,8.44,135.12,34.74,135.12,67.14"/>
<path class="st0" d="M133.32,67.14L133.32,67.14c0,31.5-25.4,57-56.9,57s-57-25.4-57-56.9s25.4-57,56.9-57h0.1
	C107.82,10.24,133.32,35.64,133.32,67.14L133.32,67.14"/>
<path class="st0" d="M118.82,67.04L118.82,67.04c0,23.5-19,42.6-42.5,42.6s-42.5-19-42.6-42.4c0-23.5,19-42.6,42.5-42.6h0.1
	c23.4,0,42.4,18.9,42.5,42.3C118.82,66.94,118.82,67.04,118.82,67.04"/>
<path class="st1" d="M42.82,76.14c3.2,12,12.7,21.4,24.7,24.5"/>
<path class="st1" d="M67.42,33.64c-12.1,3.1-21.5,12.6-24.6,24.6"/>
<path class="st1" d="M109.82,58.14c-3.2-12-12.5-21.3-24.5-24.5"/>
<path class="st1" d="M85.32,100.54c12-3.2,21.3-12.5,24.5-24.5"/>
<path class="st0" d="M81.12,37.34c-1.6-0.2-3.2-0.4-4.8-0.4c-1.5,0-3.1,0.1-4.6,0.4"/>
<path class="st0" d="M106.02,71.84c0.2-1.6,0.4-3.2,0.4-4.8c0-1.5-0.1-3-0.4-4.6"/>
<path class="st0" d="M71.72,96.74c1.5,0.2,3,0.4,4.6,0.4s3.2-0.1,4.8-0.4"/>
<path class="st0" d="M46.52,62.44c-0.2,1.5-0.4,3-0.4,4.6s0.1,3.2,0.5,4.8"/>
<path class="st0" d="M105.62,71.84c0.2-1.6,0.4-3.2,0.4-4.8c0-1.5-0.1-3-0.4-4.6"/>
<path class="st0" d="M81.12,37.84c-1.6-0.3-3.2-0.5-4.8-0.5c-1.5,0-3.1,0.1-4.6,0.4"/>
<path class="st0" d="M47.02,62.44c-0.2,1.5-0.4,3-0.4,4.6s0.1,3.2,0.4,4.8"/>
<path class="st0" d="M71.72,96.34c1.5,0.2,3,0.4,4.6,0.4s3.2-0.1,4.8-0.4"/>
<line class="st0" x1="104.42" y1="65.84" x2="104.22" y2="63.74"/>
<line class="st0" x1="79.82" y1="94.94" x2="77.72" y2="95.14"/>
<line class="st0" x1="48.62" y1="70.64" x2="48.32" y2="68.44"/>
<line class="st0" x1="72.92" y1="39.34" x2="75.12" y2="39.14"/>
<path class="st1" d="M81.12,59.14c0,1.8,1.4,3.2,3.2,3.2l0,0h0.1"/>
<path class="st1" d="M81.12,39.54c-0.6,1.1-1,2.4-1,3.7s0.4,2.7,1,3.8"/>
<path class="st1" d="M93.62,43.34L93.62,43.34c0,2.9-2.4,5.3-5.3,5.3s-5.3-2.4-5.3-5.3s2.4-5.3,5.3-5.3l0,0c2.9,0,5.2,2.3,5.3,5.2
	C93.62,43.34,93.62,43.34,93.62,43.34"/>
<path class="st1" d="M85.32,33.64c-0.3-0.2-0.7-0.2-1-0.2c-1.8,0-3.3,1.5-3.2,3.4v0.1"/>
<path class="st1" d="M91.22,43.34L91.22,43.34c0,1.6-1.3,2.9-2.9,2.9s-3-1.3-3-2.9c0-1.6,1.3-3,2.9-3s3,1.3,3,2.9
	C91.22,43.34,91.22,43.34,91.22,43.34"/>
<path class="st1" d="M91.02,43.34L91.02,43.34c-0.1,1.5-1.3,2.6-2.8,2.6s-2.7-1.2-2.7-2.7s1.2-2.7,2.7-2.7l0,0
	C89.82,40.64,91.02,41.84,91.02,43.34"/>
<path class="st0" d="M142.46,79.84c2.24-3.9,3.46-8.3,3.46-12.8c0-4.4-1.12-8.8-3.46-12.6l0.06,0.1l-22.1-38.3"/>
<path class="st0" d="M141.12,78.94c2.1-3.62,3.1-7.73,3.1-11.95c0-4.12-1.1-8.13-3.1-11.65"/>
<path class="st1" d="M96.42,62.34c1.1,0.6,2.3,1,3.6,1c1.3,0,2.7-0.4,3.8-1"/>
<path class="st1" d="M105.42,55.24L105.42,55.24c0,2.9-2.4,5.2-5.3,5.2s-5.2-2.4-5.2-5.3c0-2.8,2.3-5.1,5.2-5.2
	C103.12,49.94,105.42,52.34,105.42,55.24L105.42,55.24"/>
<path class="st1" d="M106.62,62.34c1.8,0,3.3-1.5,3.2-3.4v-0.8"/>
<path class="st1" d="M103.22,55.24L103.22,55.24c0,1.6-1.4,2.9-3,2.9s-2.9-1.4-2.9-3s1.3-2.8,2.9-2.9
	C101.82,52.24,103.22,53.64,103.22,55.24"/>
<path class="st1" d="M102.92,55.24L102.92,55.24c0,1.5-1.3,2.7-2.8,2.6c-1.5,0-2.7-1.3-2.6-2.8c0-1.4,1.2-2.6,2.6-2.6
	C101.62,52.44,102.92,53.64,102.92,55.24L102.92,55.24"/>
<path class="st0" d="M120.54,16.3c-4.5-7.9-12.9-12.9-22-12.8l0,0h-44.1h-0.1c-9.1,0-17.5,4.8-22.1,12.7l-22.1,38.3
	c-2.1,3.8-3.3,8.2-3.3,12.6c0,4.5,1.2,8.9,3.5,12.8h-0.1l22.2,38.3c4.6,7.8,12.9,12.6,22,12.6h0.1l0,0h44.1l0,0
	c9.1,0,17.4-4.9,22-12.7"/>
<path class="st0" d="M119.02,17.14c-4.2-7.4-12-12-20.5-12"/>
<polygon class="st3" points="69.42,81.44 69.62,81.34 69.62,81.04 69.72,80.94 70.42,80.94 70.42,85.84 69.42,85.84 69.42,82.54 
	68.42,82.54 68.42,81.74 69.02,81.74 69.12,81.64 69.12,81.64 69.22,81.64 69.32,81.54 "/>
<path class="st3" d="M58.32,80.54v0.2h-0.1v0.2l-0.2,0.1v0.3v0.1v0.2h4.6v-1.2h-2.9v-0.1h0.1v-0.1h0.2l0.1-0.1v-0.2h0.1v-0.1h0.2
	l0.5-0.3l0.3-0.3l0.1-0.1l0.2-0.1l0.1-0.1l0.2-0.2l0.1-0.1l0.1-0.1v-0.1h0.2v-0.3h0.2v-0.3h0.1v-0.1l0.1-0.3v-0.5v-0.6l-0.1-0.1
	l-0.1-0.1v-0.1l-0.2-0.1v-0.3l-0.2-0.1v-0.1l-0.1-0.1h-0.3l-0.1-0.2l-0.1-0.1h-0.1l-0.1-0.1h-0.9h-0.7l-0.2,0.1l-0.2,0.1h-0.1
	l-0.1,0.2l-0.1,0.1l-0.1,0.1l-0.2,0.1l-0.1,0.1l-0.1,0.2v0.1l-0.1,0.2v0.4l-0.1,0.1v0.4v0.1v0.1h1.3v-0.4v-0.2h0.1v-0.2l0.1-0.2
	v-0.1h0.1v-0.1l0.2-0.1h0.4h0.4v0.1h0.1v0.1h0.1l0,0l0.2,0.1v0.3v0.1h0.1v0.2v0.2l-0.1,0.1v0.1v0.1v0.1l-0.2,0.2l-0.1,0.1l-0.1,0.1
	v0.1h-0.1l-0.1,0.1l-0.2,0.2v0.1l-0.2,0.1h-0.1l-0.3,0.2l-0.1,0.2h-0.1l-0.1,0.2h-0.1l-0.3,0.1v0.1l-0.1,0.2h-0.1l-0.1,0.1
	c-0.2,0.2-0.4,0.5-0.5,0.8"/>
<polygon class="st3" points="61.62,59.74 61.82,59.54 61.92,59.44 61.92,59.34 62.02,59.34 62.02,58.94 62.02,58.74 62.02,58.34 
	61.92,58.24 61.92,58.04 61.82,58.04 61.62,57.94 61.62,57.74 61.52,57.64 61.32,57.64 61.22,57.64 61.02,57.54 60.42,57.54 
	60.22,57.54 60.22,56.34 60.62,56.34 60.92,56.34 61.02,56.24 61.22,56.24 61.32,56.24 61.42,56.14 61.52,56.14 61.52,55.94 
	61.62,55.84 61.62,55.74 61.82,55.64 61.82,55.54 61.82,55.34 61.92,55.24 61.92,55.14 61.82,55.04 61.82,54.74 61.62,54.64 
	61.62,54.54 61.52,54.44 61.52,54.44 61.42,54.34 61.22,54.34 61.02,54.14 60.82,54.14 60.62,54.14 60.42,54.34 60.22,54.34 
	60.12,54.44 60.02,54.64 59.82,54.74 59.82,54.94 59.72,55.14 59.72,55.54 58.22,55.54 58.32,55.24 58.32,54.54 58.42,54.44 
	58.42,54.14 58.52,53.94 58.62,53.84 58.82,53.74 58.92,53.54 59.02,53.34 59.22,53.24 59.42,53.24 59.52,52.94 59.72,52.94 
	60.02,52.84 60.92,52.84 61.82,52.84 62.02,52.94 62.12,52.94 62.42,53.14 62.52,53.24 62.62,53.34 62.72,53.44 63.02,53.54 
	63.12,53.74 63.12,53.84 63.22,53.94 63.32,54.14 63.32,54.34 63.42,54.44 63.42,55.04 63.42,55.74 63.32,55.84 63.32,56.14 
	63.12,56.24 63.02,56.34 62.82,56.44 62.72,56.54 62.62,56.84 62.72,56.84 62.72,56.94 63.02,56.94 63.02,57.04 63.12,57.14 
	63.22,57.14 63.32,57.34 63.32,57.44 63.42,57.54 63.42,57.64 63.62,57.74 63.62,57.94 63.72,58.04 63.72,58.34 63.72,58.74 
	63.72,59.54 63.62,59.84 63.42,59.94 63.32,60.14 63.22,60.34 63.12,60.44 63.02,60.64 62.72,60.74 62.62,60.94 62.42,61.04 
	62.22,61.14 62.02,61.14 61.92,61.24 61.62,61.24 61.32,61.34 60.92,61.34 60.42,61.34 60.22,61.24 59.82,61.24 59.72,61.14 
	59.52,61.14 59.42,61.04 59.22,60.94 59.12,60.94 59.02,60.74 58.92,60.74 58.82,60.64 58.62,60.54 58.62,60.44 58.52,60.44 
	58.42,60.14 58.32,60.04 58.32,59.74 58.22,59.54 58.22,59.34 58.02,59.24 58.02,58.64 59.72,58.64 59.82,58.84 59.82,59.24 
	60.02,59.44 60.12,59.54 60.22,59.74 60.22,59.84 60.42,59.84 60.62,59.94 60.82,60.04 60.92,60.04 61.22,60.04 61.32,59.94 
	61.52,59.84 61.62,59.84 "/>
<polygon class="st3" points="84.32,56.24 84.62,56.14 84.92,56.14 84.92,55.94 85.02,55.84 85.22,55.74 85.32,55.74 85.32,55.64 
	85.42,55.54 85.42,55.14 85.52,55.14 85.52,54.64 85.52,54.44 85.42,54.14 85.42,53.74 85.32,53.74 85.22,53.54 85.02,53.44 
	85.02,53.34 84.72,53.34 84.62,53.24 84.32,53.24 84.12,53.24 84.02,53.34 83.72,53.34 83.62,53.44 83.52,53.54 83.42,53.54 
	83.22,53.74 83.12,53.84 81.72,53.74 82.42,49.14 86.82,49.14 86.82,50.54 83.52,50.54 83.22,52.24 83.42,52.24 83.52,52.14 
	83.62,52.14 83.82,52.04 84.02,52.04 84.12,51.94 84.72,51.94 85.52,51.94 85.62,52.04 85.92,52.14 86.02,52.24 86.12,52.24 
	86.42,52.54 86.52,52.64 86.62,52.74 86.72,52.84 86.82,53.14 87.02,53.24 87.12,53.44 87.12,53.84 87.22,54.04 87.22,54.54 
	87.22,55.04 87.12,55.24 87.12,55.74 86.82,55.94 86.82,56.14 86.72,56.34 86.52,56.54 86.42,56.74 86.22,56.84 86.12,56.94 
	85.92,57.14 85.62,57.34 85.42,57.34 85.32,57.44 85.02,57.54 84.22,57.54 83.52,57.54 83.22,57.44 83.12,57.34 82.92,57.34 
	82.82,57.14 82.52,57.14 82.42,56.94 82.32,56.84 82.22,56.84 82.02,56.54 81.92,56.44 81.82,56.24 81.72,56.14 81.72,55.84 
	81.62,55.64 81.42,55.34 81.42,55.14 83.12,55.14 83.12,55.24 83.22,55.34 83.22,55.54 83.42,55.64 83.52,55.74 83.52,55.84 
	83.62,55.94 83.72,56.14 84.02,56.14 84.22,56.24 "/>
<g>
	<line class="st3" x1="92.62" y1="55.04" x2="94.32" y2="55.04"/>
	<polyline class="st3" points="94.32,55.04 94.22,54.64 94.02,54.34 94.02,54.04 93.92,53.94 93.82,53.74 93.72,53.44 93.42,53.34 
		93.32,53.24 93.12,53.14 92.82,52.94 92.62,52.84 91.82,52.84 	"/>
	<polyline class="st3" points="91.82,52.84 90.82,52.84 90.62,52.94 90.32,53.14 90.12,53.24 90.02,53.34 89.72,53.54 89.62,53.74 
		89.42,53.94 89.22,54.34 89.12,54.54 89.02,54.74 88.92,55.14 88.92,55.64 88.82,56.14 88.62,56.54 88.62,57.34 	"/>
	<polyline class="st3" points="88.62,57.34 88.62,57.74 88.82,58.14 88.82,58.54 88.92,58.74 88.92,59.14 89.02,59.44 89.02,59.74 
		89.22,59.94 89.42,60.14 89.52,60.44 	"/>
	<polyline class="st3" points="89.52,60.44 89.62,60.54 89.82,60.74 90.02,60.94 90.22,61.04 90.42,61.14 90.72,61.24 91.22,61.24 
		91.42,61.34 91.62,61.34 	"/>
	<polyline class="st3" points="91.62,61.34 91.92,61.34 92.12,61.24 92.62,61.24 92.82,61.14 93.02,61.14 93.22,60.94 93.32,60.94 
		93.62,60.74 93.72,60.54 	"/>
	<polyline class="st3" points="93.72,60.54 93.82,60.44 93.92,60.14 94.02,60.04 94.22,59.84 94.32,59.54 94.32,59.14 94.42,58.94 
		94.42,58.34 	"/>
	<polyline class="st3" points="94.42,58.34 94.42,57.94 94.32,57.64 94.32,57.34 94.22,57.14 94.02,56.94 93.92,56.84 93.82,56.54 
		93.72,56.44 	"/>
	<polyline class="st3" points="93.72,56.44 93.62,56.34 93.32,56.24 93.22,56.14 93.12,55.94 93.02,55.84 92.62,55.84 92.42,55.74 
		92.02,55.74 	"/>
	<polyline class="st3" points="92.02,55.74 91.62,55.74 91.42,55.84 91.22,55.84 90.92,56.14 90.82,56.14 90.72,56.24 90.42,56.34 
		90.32,56.44 	"/>
	<polyline class="st3" points="90.32,56.44 90.32,55.74 90.42,55.54 90.42,55.14 90.62,55.04 90.72,54.74 90.82,54.64 	"/>
	<polyline class="st3" points="90.82,54.64 90.82,54.54 90.92,54.44 91.02,54.44 91.02,54.34 91.22,54.34 91.42,54.14 91.62,54.14 	
		"/>
	<polyline class="st3" points="91.62,54.14 91.92,54.14 92.02,54.34 92.12,54.34 92.22,54.44 92.42,54.54 92.52,54.64 92.52,54.74 
		92.62,55.04 	"/>
	<polyline class="st3" points="90.32,58.54 90.32,58.34 90.42,58.24 90.42,57.74 90.62,57.64 90.72,57.54 	"/>
	<polyline class="st3" points="90.72,57.54 90.82,57.44 90.82,57.34 91.02,57.34 91.02,57.14 91.52,57.14 	"/>
	<polyline class="st3" points="91.52,57.14 92.12,57.14 92.12,57.34 92.22,57.34 92.42,57.44 92.52,57.54 	"/>
	<polyline class="st3" points="92.52,57.54 92.52,57.64 92.62,57.74 92.62,58.04 92.72,58.24 92.72,58.64 	"/>
	<polyline class="st3" points="92.72,58.64 92.72,58.94 92.62,58.94 92.62,59.44 92.52,59.44 92.52,59.54 	"/>
	<polyline class="st3" points="92.52,59.54 92.42,59.74 92.22,59.74 92.22,59.84 92.12,59.84 92.02,59.94 91.92,59.94 91.82,60.04 
		91.52,60.04 	"/>
	<polyline class="st3" points="91.52,60.04 91.42,60.04 91.32,59.94 91.22,59.94 91.02,59.84 90.92,59.84 90.82,59.74 90.72,59.54 	
		"/>
	<polyline class="st3" points="90.72,59.54 90.72,59.44 90.62,59.44 90.62,59.34 90.42,59.24 90.42,58.94 90.42,58.74 90.32,58.64 
		90.32,58.54 	"/>
</g>
<polygon class="st3" points="91.52,81.64 89.82,81.64 90.02,81.34 90.02,80.44 90.12,80.24 90.12,79.74 90.22,79.54 90.32,79.24 
	90.32,79.14 90.32,78.94 90.42,78.74 90.42,78.54 90.72,78.34 90.72,78.14 90.82,77.94 90.82,77.74 91.02,77.44 91.02,77.34 
	91.22,77.14 91.32,76.94 91.42,76.74 91.52,76.54 91.82,76.24 91.92,76.04 92.02,75.94 92.22,75.64 92.52,75.34 92.62,75.04 
	92.82,74.84 88.62,74.84 88.62,73.34 94.62,73.34 94.62,74.74 94.42,74.94 94.02,75.34 93.92,75.54 93.72,75.94 93.42,76.24 
	93.22,76.54 93.02,76.74 92.82,77.14 92.62,77.44 92.52,77.74 92.42,78.04 92.22,78.44 92.12,78.74 92.02,79.04 91.92,79.34 
	91.92,79.74 91.82,80.14 91.82,80.44 91.62,80.84 91.52,81.14 "/>
<polygon class="st3" points="82.42,78.14 82.52,78.04 82.82,77.84 82.92,77.84 83.12,77.74 83.22,77.74 83.52,77.54 83.62,77.44 
	84.32,77.44 85.02,77.44 85.32,77.54 85.42,77.54 85.62,77.74 85.82,77.84 86.02,77.84 86.12,77.94 86.22,78.04 86.42,78.14 
	86.52,78.44 86.62,78.54 86.72,78.64 86.72,78.74 86.82,78.94 86.82,79.74 86.82,80.34 86.72,80.54 86.62,80.74 86.52,80.94 
	86.42,81.04 86.12,81.14 86.02,81.34 85.82,81.44 86.02,81.54 86.12,81.64 86.22,81.64 86.42,81.74 86.52,81.74 86.62,81.94 
	86.72,82.04 86.72,82.14 86.82,82.14 86.82,82.34 87.02,82.34 87.12,82.54 87.12,82.94 87.22,83.14 87.22,83.44 87.22,83.94 
	87.12,84.14 87.12,84.34 87.02,84.54 86.82,84.64 86.82,84.94 86.72,85.04 86.52,85.14 86.42,85.24 86.22,85.34 86.02,85.64 
	85.92,85.64 85.62,85.74 85.42,85.84 85.32,85.94 84.32,85.94 83.42,85.94 83.12,85.84 82.92,85.74 82.82,85.74 82.52,85.64 
	82.42,85.34 82.22,85.34 82.02,85.24 82.02,85.04 81.82,84.94 81.82,84.64 81.72,84.54 81.72,84.34 81.62,84.14 81.42,83.94 
	81.42,83.44 81.42,83.14 81.62,82.84 81.62,82.74 81.72,82.74 81.72,82.54 81.82,82.34 81.82,82.24 81.92,82.14 82.02,82.14 
	82.02,82.04 82.22,81.94 82.32,81.74 82.42,81.74 82.52,81.64 82.82,81.54 82.92,81.44 82.62,81.44 82.52,81.34 82.32,81.04 
	82.22,81.04 82.02,80.84 81.92,80.74 81.82,80.44 81.82,80.34 81.72,80.14 81.72,79.84 81.72,79.64 81.82,79.34 81.82,79.04 
	81.92,78.94 82.02,78.74 82.02,78.54 82.22,78.44 82.32,78.14 "/>
<polygon class="st3" points="84.32,84.64 84.72,84.64 84.82,84.54 84.92,84.54 85.02,84.44 85.22,84.34 85.32,84.34 85.32,84.14 
	85.42,84.14 85.42,83.94 85.42,83.84 85.52,83.54 85.52,83.44 85.52,83.24 85.42,83.14 85.42,82.84 85.42,82.74 85.32,82.74 
	85.32,82.64 85.22,82.54 85.02,82.54 84.92,82.34 84.72,82.34 84.72,82.24 84.32,82.24 84.02,82.24 84.02,82.34 83.62,82.34 
	83.62,82.54 83.52,82.54 83.52,82.64 83.42,82.74 83.22,82.74 83.22,82.84 83.22,83.14 83.12,83.24 83.12,83.44 83.12,83.54 
	83.22,83.84 83.22,84.14 83.42,84.14 83.52,84.34 83.52,84.34 83.62,84.44 83.62,84.54 83.82,84.54 84.02,84.64 "/>
<polygon class="st3" points="84.32,80.94 84.62,80.94 84.72,80.84 84.82,80.74 84.92,80.74 85.02,80.54 85.02,80.34 85.22,80.34 
	85.22,80.24 85.32,80.24 85.32,79.94 85.32,79.84 85.32,79.64 85.22,79.54 85.22,79.24 85.02,79.24 85.02,79.14 84.92,79.14 
	84.92,79.04 84.82,78.94 84.62,78.94 84.62,78.74 84.32,78.74 84.22,78.74 84.12,78.94 83.82,78.94 83.72,79.04 83.72,79.14 
	83.62,79.14 83.62,79.24 83.52,79.24 83.52,79.54 83.52,79.84 83.42,79.84 83.52,79.94 83.52,80.24 83.52,80.34 83.62,80.44 
	83.62,80.54 83.72,80.74 83.82,80.74 84.02,80.84 84.12,80.94 "/>
<polyline class="st0" points="75.22,37.34 75.22,37.64 75.22,37.74 75.22,37.94 75.12,38.24 75.12,39.14 "/>
<polyline class="st0" points="46.62,68.34 47.22,68.34 47.42,68.44 48.32,68.44 "/>
<polyline class="st0" points="77.52,96.94 77.52,96.64 77.62,96.64 77.62,96.54 77.62,96.34 77.62,95.84 77.72,95.54 77.72,95.14 
	"/>
<polyline class="st0" points="106.22,65.94 105.22,65.94 105.12,65.84 104.42,65.84 "/>
</svg>
